{
    "nodes": [
        {
            "name": "A",
            "pointsTo": ["B", "C"]
        },
        {
            "name": "B",
            "pointsTo": ["D", "E"]
        },
        {
            "name": "C",
            "pointsTo": ["F", "G"]
        },
        {"name": "D"},
        {"name": "E"},
        {"name": "F"},
        {"name": "G"}
    ]
}