{
    "nodes": [
        {
            "name": "A",
            "pointsTo": ["B", "C", "D", "E"]
        },
        {
            "name": "B",
            "pointsTo": ["D"]
        },
        {
            "name": "C",
            "pointsTo": ["D", "E"]
        },
        {
            "name": "D",
            "pointsTo": ["E"]
        },
        {"name": "E"}
    ]
}